/Users/rickmartens/Documents/IdeaProjects/EasyBungeeCordMSG/src/main/java/nl/rickmartens/easybungeecordmsg/EasyBungeecordMSG.java
/Users/rickmartens/Documents/IdeaProjects/EasyBungeeCordMSG/src/main/java/nl/rickmartens/easybungeecordmsg/commands/ToggleMSGCommand.java
/Users/rickmartens/Documents/IdeaProjects/EasyBungeeCordMSG/src/main/java/nl/rickmartens/easybungeecordmsg/commands/ReplyCommand.java
/Users/rickmartens/Documents/IdeaProjects/EasyBungeeCordMSG/src/main/java/nl/rickmartens/easybungeecordmsg/commands/MSGCommand.java
